sv/ues/occ/ingenieria/prn335_2019/cine/entity/AtributoSalaPK.class
sv/ues/occ/ingenieria/prn335_2019/cine/entity/Director.class
sv/ues/occ/ingenieria/prn335_2019/cine/control/Sumador.class
sv/ues/occ/ingenieria/prn335_2019/cine/entity/Funcion.class
sv/ues/occ/ingenieria/prn335_2019/cine/entity/TipoDescuento.class
sv/ues/occ/ingenieria/prn335_2019/cine/entity/TipoPago.class
sv/ues/occ/ingenieria/prn335_2019/cine/entity/Pelicula.class
sv/ues/occ/ingenieria/prn335_2019/cine/entity/OrdenConsumible.class
sv/ues/occ/ingenieria/prn335_2019/cine/entity/Boleto.class
sv/ues/occ/ingenieria/prn335_2019/cine/entity/Orden.class
sv/ues/occ/ingenieria/prn335_2019/cine/entity/MenuConsumible.class
sv/ues/occ/ingenieria/prn335_2019/cine/control/MenuConsumibleBean.class
sv/ues/occ/ingenieria/prn335_2019/cine/entity/CaracteristicaSala.class
sv/ues/occ/ingenieria/prn335_2019/cine/entity/Factura.class
sv/ues/occ/ingenieria/prn335_2019/cine/entity/AtributoAsientoPK.class
sv/ues/occ/ingenieria/prn335_2019/cine/entity/AtributoAsiento.class
sv/ues/occ/ingenieria/prn335_2019/cine/entity/CaracteristicaAsiento.class
sv/ues/occ/ingenieria/prn335_2019/cine/entity/Sucursal.class
sv/ues/occ/ingenieria/prn335_2019/cine/entity/Pago.class
sv/ues/occ/ingenieria/prn335_2019/cine/entity/Descuento.class
sv/ues/occ/ingenieria/prn335_2019/cine/entity/AtributoSala.class
sv/ues/occ/ingenieria/prn335_2019/cine/entity/Genero.class
sv/ues/occ/ingenieria/prn335_2019/cine/entity/AtributoFuncionPK.class
sv/ues/occ/ingenieria/prn335_2019/cine/entity/Clasificacion.class
sv/ues/occ/ingenieria/prn335_2019/cine/entity/CaracteristicaFuncion.class
sv/ues/occ/ingenieria/prn335_2019/cine/entity/Asiento.class
sv/ues/occ/ingenieria/prn335_2019/cine/entity/Sala.class
sv/ues/occ/ingenieria/prn335_2019/cine/boundary/servlet/MenuConsumibleServlet.class
sv/ues/occ/ingenieria/prn335_2019/cine/DataAccessException.class
sv/ues/occ/ingenieria/prn335_2019/cine/entity/AsientoSala.class
sv/ues/occ/ingenieria/prn335_2019/cine/entity/AtributoFuncion.class
sv/ues/occ/ingenieria/prn335_2019/cine/entity/OrdenConsumiblePK.class
